＜登場人物＞,＜会話(動作・演出)＞,＜その他＞
,3. 高専祭で楽しむ。,
,～射的、屋台、それぞれ楽しむ～,BGM？
コナン,おじちゃん！！あれ当たったのに倒れないよ！いんちきだ～,普段と違う子供らしい声で
おじちゃん(キッド),いんちきだなんて。心外だな(苦笑),
コナン,もう１回やらせて！！,
灰原,もう子供じゃないんだから、、,
,～何度挑戦してもゲットできず…。～,元太達にもやらせて時間稼ぎしてもいいかも
蘭,あらー、残念だったねコナン君。,屋台を回って戻ってきた感じ
おじちゃん(キッド),おっ？そこのお姉ちゃんも1回やってみないか。,てきとうに理由つけて蘭にやらす
,長年射的のおじちゃんやってての勘だが、お姉ちゃん素質あるぞ,
蘭,え！わたし！？,
灰原,腕の見せ所ね,
,～一度でGetする～,
みんな(?),わぁ～！！すごい！！,
蘭,えへへ、こんなのたまたまよ！,コナンにかわいい系のぬいぐるみを渡す
,はい！コナンくん！！ずっとこれ狙ってたでしょ？,(なんでもいいので変更して)
コナン,え！！あ、ありがとう。(苦笑),心の声
,(蘭にあげようとして狙ってたんだけどな…。かっこわりぃ),
灰原,ふふふ。彼女のほうが腕がいいのね。,蘭本人には聞こえないように。
コナン,うっせーよ,やめろよ的な
,―合流―,
歩美,コナンくーん！あいちゃーん！,
光彦,みんなのご飯買ってきましたよ！,
元太,早く食べようぜ～、腹減ったよ～。,
博士,じゃああっちでごはんをたべるとするかのう！,
みんな,わーい！,
,～みんなでお昼を食べに移動しようとする～,